{
    "name": "ONiGames.Adjectives.Utilities",
    "rootNamespace": "",
    "references": [
        "GUID:6055be8ebefd69e48b49212b09b47b2f",
        "GUID:232f9e17ca67e7442b03dc8e46880d72",
        "GUID:2ca9578e9cd31f043814d3a5a682b161",
        "GUID:819a8c12e78073a42bd6a1c83422cb19"
    ],
    "includePlatforms": [],
    "excludePlatforms": [],
    "allowUnsafeCode": false,
    "overrideReferences": false,
    "precompiledReferences": [],
    "autoReferenced": true,
    "defineConstraints": [],
    "versionDefines": [],
    "noEngineReferences": false
}