{
    "name": "ONiGames.Adjectives.Editor",
    "rootNamespace": "",
    "references": [
        "GUID:2ca9578e9cd31f043814d3a5a682b161",
        "GUID:1fe5d2ac36d962046904fdbac292cd3f"
    ],
    "includePlatforms": [
        "Editor"
    ],
    "excludePlatforms": [],
    "allowUnsafeCode": false,
    "overrideReferences": false,
    "precompiledReferences": [],
    "autoReferenced": true,
    "defineConstraints": [],
    "versionDefines": [],
    "noEngineReferences": false
}